{
    "prepare_queue": {
        "installed": [],
        "uninstalled": []
    },
    "config_munge": {
        "files": {
            "config.xml": {
                "parents": {
                    "/*": [
                        {
                            "xml": "<feature name=\"Device\"><param name=\"ios-package\" value=\"CDVDevice\" /></feature>",
                            "count": 1
                        },
                        {
                            "xml": "<feature name=\"Console\"><param name=\"ios-package\" value=\"CDVLogger\" /></feature>",
                            "count": 1
                        },
                        {
                            "xml": "<feature name=\"SplashScreen\"><param name=\"ios-package\" value=\"CDVSplashScreen\" /><param name=\"onload\" value=\"true\" /></feature>",
                            "count": 1
                        },
                        {
                            "xml": "<feature name=\"Notification\"><param name=\"ios-package\" value=\"CDVNotification\" /></feature>",
                            "count": 1
                        },
                        {
                            "xml": "<feature name=\"InAppBrowser\"><param name=\"ios-package\" value=\"CDVInAppBrowser\" /></feature>",
                            "count": 1
                        },
                        {
                            "xml": "<feature name=\"StatusBar\"><param name=\"ios-package\" value=\"CDVStatusBar\" /><param name=\"onload\" value=\"true\" /></feature>",
                            "count": 1
                        },
                        {
                            "xml": "<preference name=\"StatusBarOverlaysWebView\" value=\"true\" />",
                            "count": 1
                        },
                        {
                            "xml": "<preference name=\"StatusBarStyle\" value=\"lightcontent\" />",
                            "count": 1
                        },
                        {
                            "xml": "<feature name=\"SpinnerPlugin\"><param name=\"ios-package\" value=\"SpinnerPlugin\" /></feature>",
                            "count": 1
                        },
                        {
                            "xml": "<feature name=\"Keyboard\"><param name=\"ios-package\" onload=\"true\" value=\"IonicKeyboard\" /></feature>",
                            "count": 1
                        },
                        {
                            "xml": "<feature name=\"Toast\"><param name=\"ios-package\" value=\"Toast\" /></feature>",
                            "count": 1
                        },
                        {
                            "xml": "<feature name=\"Clipboard\"><param name=\"ios-package\" value=\"CDVClipboard\" /></feature>",
                            "count": 1
                        }
                    ]
                }
            }
        }
    },
    "installed_plugins": {
        "cordova-plugin-device": {
            "PACKAGE_NAME": "net.CollegeBoard"
        },
        "cordova-plugin-console": {
            "PACKAGE_NAME": "net.CollegeBoard"
        },
        "cordova-plugin-whitelist": {
            "PACKAGE_NAME": "net.CollegeBoard"
        },
        "cordova-plugin-splashscreen": {
            "PACKAGE_NAME": "net.CollegeBoard"
        },
        "cordova-plugin-dialogs": {
            "PACKAGE_NAME": "net.CollegeBoard"
        },
        "cordova-plugin-inappbrowser": {
            "PACKAGE_NAME": "net.CollegeBoard"
        },
        "cordova-plugin-statusbar": {
            "PACKAGE_NAME": "net.CollegeBoard"
        },
        "cordova-plugin-spinner": {
            "PACKAGE_NAME": "net.CollegeBoard"
        },
        "ionic-plugin-keyboard": {
            "PACKAGE_NAME": "net.CollegeBoard"
        },
        "cordova-plugin-x-toast": {
            "PACKAGE_NAME": "net.CollegeBoard"
        },
        "cordova-universal-clipboard": {
            "PACKAGE_NAME": "net.CollegeBoard"
        }
    },
    "dependent_plugins": {},
    "modules": [
        {
            "file": "plugins/cordova-plugin-device/www/device.js",
            "id": "cordova-plugin-device.device",
            "pluginId": "cordova-plugin-device",
            "clobbers": [
                "device"
            ]
        },
        {
            "file": "plugins/cordova-plugin-console/www/logger.js",
            "id": "cordova-plugin-console.logger",
            "pluginId": "cordova-plugin-console",
            "clobbers": [
                "cordova.logger"
            ]
        },
        {
            "file": "plugins/cordova-plugin-console/www/console-via-logger.js",
            "id": "cordova-plugin-console.console",
            "pluginId": "cordova-plugin-console",
            "clobbers": [
                "console"
            ]
        },
        {
            "file": "plugins/cordova-plugin-splashscreen/www/splashscreen.js",
            "id": "cordova-plugin-splashscreen.SplashScreen",
            "pluginId": "cordova-plugin-splashscreen",
            "clobbers": [
                "navigator.splashscreen"
            ]
        },
        {
            "file": "plugins/cordova-plugin-dialogs/www/notification.js",
            "id": "cordova-plugin-dialogs.notification",
            "pluginId": "cordova-plugin-dialogs",
            "merges": [
                "navigator.notification"
            ]
        },
        {
            "file": "plugins/cordova-plugin-inappbrowser/www/inappbrowser.js",
            "id": "cordova-plugin-inappbrowser.inappbrowser",
            "pluginId": "cordova-plugin-inappbrowser",
            "clobbers": [
                "cordova.InAppBrowser.open",
                "window.open"
            ]
        },
        {
            "file": "plugins/cordova-plugin-statusbar/www/statusbar.js",
            "id": "cordova-plugin-statusbar.statusbar",
            "pluginId": "cordova-plugin-statusbar",
            "clobbers": [
                "window.StatusBar"
            ]
        },
        {
            "file": "plugins/cordova-plugin-spinner/www/spinner-plugin.js",
            "id": "cordova-plugin-spinner.SpinnerPlugin",
            "pluginId": "cordova-plugin-spinner",
            "clobbers": [
                "SpinnerPlugin"
            ]
        },
        {
            "file": "plugins/ionic-plugin-keyboard/www/ios/keyboard.js",
            "id": "ionic-plugin-keyboard.keyboard",
            "pluginId": "ionic-plugin-keyboard",
            "clobbers": [
                "cordova.plugins.Keyboard"
            ],
            "runs": true
        },
        {
            "file": "plugins/cordova-plugin-x-toast/www/Toast.js",
            "id": "cordova-plugin-x-toast.Toast",
            "pluginId": "cordova-plugin-x-toast",
            "clobbers": [
                "window.plugins.toast"
            ]
        },
        {
            "file": "plugins/cordova-plugin-x-toast/test/tests.js",
            "id": "cordova-plugin-x-toast.tests",
            "pluginId": "cordova-plugin-x-toast"
        },
        {
            "file": "plugins/cordova-universal-clipboard/www/clipboard.js",
            "id": "cordova-universal-clipboard.Clipboard",
            "pluginId": "cordova-universal-clipboard",
            "clobbers": [
                "cordova.plugins.clipboard"
            ]
        }
    ],
    "plugin_metadata": {
        "cordova-plugin-device": "1.0.1",
        "cordova-plugin-console": "1.0.1",
        "cordova-plugin-whitelist": "1.0.0",
        "cordova-plugin-splashscreen": "2.1.0",
        "cordova-plugin-dialogs": "1.1.1",
        "cordova-plugin-inappbrowser": "1.0.1",
        "cordova-plugin-statusbar": "1.0.1",
        "cordova-plugin-spinner": "1.0.0",
        "ionic-plugin-keyboard": "1.0.7",
        "cordova-plugin-x-toast": "2.2.1",
        "cordova-universal-clipboard": "0.1.0"
    }
}