{
    "cordova-plugin-device": {
        "source": {
            "type": "registry",
            "id": "cordova-plugin-device@1.0.1"
        },
        "is_top_level": true,
        "variables": {}
    },
    "cordova-plugin-console": {
        "source": {
            "type": "registry",
            "id": "cordova-plugin-console@1.0.1"
        },
        "is_top_level": true,
        "variables": {}
    },
    "cordova-plugin-whitelist": {
        "source": {
            "type": "registry",
            "id": "cordova-plugin-whitelist@1.0.0"
        },
        "is_top_level": true,
        "variables": {}
    },
    "cordova-plugin-splashscreen": {
        "source": {
            "type": "registry",
            "id": "cordova-plugin-splashscreen@2.1.0"
        },
        "is_top_level": true,
        "variables": {}
    },
    "cordova-plugin-dialogs": {
        "source": {
            "type": "registry",
            "id": "cordova-plugin-dialogs@1.1.1"
        },
        "is_top_level": true,
        "variables": {}
    },
    "cordova-plugin-inappbrowser": {
        "source": {
            "type": "registry",
            "id": "cordova-plugin-inappbrowser@1.0.1"
        },
        "is_top_level": true,
        "variables": {}
    },
    "cordova-plugin-statusbar": {
        "source": {
            "type": "registry",
            "id": "cordova-plugin-statusbar@1.0.1"
        },
        "is_top_level": true,
        "variables": {}
    },
    "cordova-plugin-spinner": {
        "source": {
            "type": "registry",
            "id": "cordova-plugin-spinner@1.0.0"
        },
        "is_top_level": true,
        "variables": {}
    },
    "ionic-plugin-keyboard": {
        "source": {
            "type": "registry",
            "id": "ionic-plugin-keyboard@1.0.7"
        },
        "is_top_level": true,
        "variables": {}
    },
    "cordova-plugin-x-toast": {
        "source": {
            "type": "registry",
            "id": "cordova-plugin-x-toast@2.2.1"
        },
        "is_top_level": true,
        "variables": {}
    },
    "cordova-universal-clipboard": {
        "source": {
            "type": "registry",
            "id": "cordova-universal-clipboard@0.1.0"
        },
        "is_top_level": true,
        "variables": {}
    }
}